{
  "type": "service_account",
  "project_id": "motari-279712",
  "private_key_id": "4795d22cdcb19b414f707d201b65791b9c3b8301",
  "private_key": "-----BEGIN PRIVATE KEY-----\nMIIEvAIBADANBgkqhkiG9w0BAQEFAASCBKYwggSiAgEAAoIBAQC89bGJ7IqSiUY5\n7Os9V4LPldWfqX/uX5SoorexQED3ThSTeQKVDuKD7A95iKxQJdiiASDtE9DTssch\n71VYWgw5HEIzHKkQLa6ou/8YT4i5KldiGFqrT4dhCzXCU3/kxHYjhAo2qXI0OPP2\ni/FWYOSe8OIq8TJK2RFROWs3WBThQcVw3HIHlRg6LB8zPzRklFbXNE6kxqRdO00z\n+x47cXjTZ3SFBmnd3lu4NLMkOIdg0kwnPogEfw1Cgj/JQxZ/lUyVNO1Hf/ZCplgx\nUdcLTZ0tem4AvXSX8NIKNhmFbnrA/x0SWwvC31Hzq2cCHSd95aTwGwtrz3tu5H9W\nEB7y9P3rAgMBAAECggEAA5kPKeojhVMMGNaLAmeRu+r8THQbnsVRIb1xs/QnY/Kn\npn/EpK0TKjQq40NhFbGXW193jpnG/WxZlyrSvC/Jml1Zheh58C8QxwO1XQXaFwbG\nFAcUr3PJffevY6Vp8Gy+7fjC7085yeIyBCGeTA120YGk86eCnX6DKS95/CSANLSe\nx0yT5MHFMFHp55oCaNOe9Ggn3aQfp/pydvhAAc3pB808fZb4J9LytItWkx4P2tYr\naVcAuQ0M0GEgyL3/BwchUwTQynRrIYxaV93E5iEDE7mPxi35dcQu9EB7zHw33LHy\ns6cm0SJFEWV8IOeKFOivU05gEaAtc0Z15N0zD4pOCQKBgQDtSQtW7m/yG/0ztN87\nzLj6cTgnct7ifn3LKmMVlyQXhAEA54JLEVDDkxLipwPJAAEhxNKgUToB8sEOJlsl\nEQHy5P8gohTXtTjUKkCCasTPsyLDaAFtyQlNE8clens/G5LAQmKhpGMkQhdYwIwQ\n+TBxcchJOFc3G84zW+64aiLlbQKBgQDL3OwHc8Ydvy1SDTyYQ58IVs92R1THRWIB\n4PHHGW55BTKig3SUvrpieFssgjvIexJLVrOT/MK2b+qwW9nzvgZeQk7d8NANEBGZ\nyY7I+BCDHtS8YXQmoW8QlOWFRGsd6r6xiLIRflxtLu4J9Lt4IyIALZWPpUdHVpfM\n+u6RUWnRtwKBgDyMPgOBtjkOYU7XYXst4ymsyEpwqmUbJ9g2ya/RsFj7yxHDAWFM\nWtJ87f295l5czO0j/yb/cxDaM977dJiBvYCQZHWcRjtAt+6TlYBx5CSnrkA0guDT\nwrbTTCbJGTfiPlEm32olu1KeNrzj7RnLrEvWX+gnI0Ihqz05wTF3i84FAoGAMfXR\nTj48NjwM4kfmKrafuc50h1sR1sgVLbqv5ghAf54be6JVpsJbMRin12+PMSGgKSB1\nX/YYzdb9n/zSnB5ctyru4wtKIXlnptWzjWLlwQyEPCpx6am0a07iNNfAnJNT6nRC\nl3DtO8C9i2kTrGyHv51sQsjRgBUjnJN+ddSK518CgYAE/HPbFoP2JIfqNpB7olun\nJuPfhR2uhJP8nkf6dCvjczRRPXVdUxA9bbKhVZ2K6PWTXebLSmW7y582ukbUgqX/\nmKT36uLgod2X0Yr0/+iIjP89s2Q3GZ0EnY56eevAjcxP2utOrd2OQQ7oH+1xFBJo\nRl/6ricVhYadSlIEANf80Q==\n-----END PRIVATE KEY-----\n",
  "client_email": "mopay-321@motari-279712.iam.gserviceaccount.com",
  "client_id": "112606102940832859811",
  "auth_uri": "https://accounts.google.com/o/oauth2/auth",
  "token_uri": "https://oauth2.googleapis.com/token",
  "auth_provider_x509_cert_url": "https://www.googleapis.com/oauth2/v1/certs",
  "client_x509_cert_url": "https://www.googleapis.com/robot/v1/metadata/x509/mopay-321%40motari-279712.iam.gserviceaccount.com"
}
